tests/fixtures/poly/timing/poly_timing_fixture.vcd
$date 2024-01-01 $end
$version poly_timing_fixture $end
$timescale 1ps $end
$scope module apatb_poly_top $end
  $scope module AESL_inst_poly $end
    $var wire 1  a ap_clk $end
    $var wire 32 b in_stream_TDATA[31:0] $end
    $var wire 1  c in_stream_TVALID $end
    $var wire 1  d in_stream_TREADY $end
    $var wire 1  e in_stream_TLAST[0:0] $end
    $var wire 32 f out_stream_TDATA[31:0] $end
    $var wire 1  g out_stream_TVALID $end
    $var wire 1  h out_stream_TREADY $end
    $var wire 1  i out_stream_TLAST[0:0] $end
  $upscope $end
$upscope $end
$enddefinitions $end
$dumpvars
0a
b00000000000000000000000000000000 b
0c
0d
0e
b00000000000000000000000000000000 f
0g
0h
0i
$end
#5000
1a
#10000
0a
b00000000000000000000000000101010 b
1c
1d
0e
b00000000000000000000000000000000 f
0g
0h
0i
#15000
1a
#20000
0a
b00111111100000000000000000000000 b
#25000
1a
#30000
0a
b11000000000000000000000000000000 b
#35000
1a
#40000
0a
b11000000010000000000000000000000 b
#45000
1a
#50000
0a
b01000000100000000000000000000000 b
#55000
1a
#60000
0a
b00000000000000000000000000000011 b
1e
#65000
1a
#70000
0a
0c
0d
0e
#75000
1a
#80000
0a
b00000000000000000000000000000000 b
1c
1d
0e
b00000000000000000000000000101010 f
1g
1h
1i
#85000
1a
#90000
0a
b00111111000000000000000000000000 b
b00111111100000000000000000000000 f
0i
#95000
1a
#100000
0a
b00111111100000000000000000000000 b
1e
b10111110100000000000000000000000 f
#105000
1a
#110000
0a
0c
0d
0e
b00000000000000000000000000000000 f
1i
#115000
1a
#120000
0a
b00000000000000000000000000000011 f
1i
#125000
1a
#130000
0a
0g
0h
0i
