examples/conv2d/vcd/dump.vcd
$date
   Sun Apr 19 22:24:46 2026
$end

$version
  2025.1.0
$end

$timescale
  1ps
$end

$scope module apatb_conv2d_top $end
$scope module AESL_inst_conv2d $end
$var wire 1 ! ap_clk $end
$var wire 1 " ap_rst_n $end
$var wire 1 # ap_start $end
$var wire 1 $ m_axi_gmem_AWVALID $end
$var wire 1 % m_axi_gmem_AWREADY $end
$var wire 64 & m_axi_gmem_AWADDR [63:0] $end
$var wire 1 ' m_axi_gmem_AWID [0:0] $end
$var wire 8 ( m_axi_gmem_AWLEN [7:0] $end
$var wire 3 ) m_axi_gmem_AWSIZE [2:0] $end
$var wire 2 * m_axi_gmem_AWBURST [1:0] $end
$var wire 2 + m_axi_gmem_AWLOCK [1:0] $end
$var wire 4 , m_axi_gmem_AWCACHE [3:0] $end
$var wire 3 - m_axi_gmem_AWPROT [2:0] $end
$var wire 4 . m_axi_gmem_AWQOS [3:0] $end
$var wire 4 / m_axi_gmem_AWREGION [3:0] $end
$var wire 1 0 m_axi_gmem_AWUSER [0:0] $end
$var wire 1 1 m_axi_gmem_WVALID $end
$var wire 1 2 m_axi_gmem_WREADY $end
$var wire 32 3 m_axi_gmem_WDATA [31:0] $end
$var wire 4 4 m_axi_gmem_WSTRB [3:0] $end
$var wire 1 5 m_axi_gmem_WLAST $end
$var wire 1 6 m_axi_gmem_WID [0:0] $end
$var wire 1 7 m_axi_gmem_WUSER [0:0] $end
$var wire 1 8 m_axi_gmem_ARVALID $end
$var wire 1 9 m_axi_gmem_ARREADY $end
$var wire 64 : m_axi_gmem_ARADDR [63:0] $end
$var wire 1 ; m_axi_gmem_ARID [0:0] $end
$var wire 8 < m_axi_gmem_ARLEN [7:0] $end
$var wire 3 = m_axi_gmem_ARSIZE [2:0] $end
$var wire 2 > m_axi_gmem_ARBURST [1:0] $end
$var wire 2 ? m_axi_gmem_ARLOCK [1:0] $end
$var wire 4 @ m_axi_gmem_ARCACHE [3:0] $end
$var wire 3 A m_axi_gmem_ARPROT [2:0] $end
$var wire 4 B m_axi_gmem_ARQOS [3:0] $end
$var wire 4 C m_axi_gmem_ARREGION [3:0] $end
$var wire 1 D m_axi_gmem_ARUSER [0:0] $end
$var wire 1 E m_axi_gmem_RVALID $end
$var wire 1 F m_axi_gmem_RREADY $end
$var wire 32 G m_axi_gmem_RDATA [31:0] $end
$var wire 1 H m_axi_gmem_RLAST $end
$var wire 1 I m_axi_gmem_RID [0:0] $end
$var wire 1 J m_axi_gmem_RUSER [0:0] $end
$var wire 2 K m_axi_gmem_RRESP [1:0] $end
$var wire 1 L m_axi_gmem_BVALID $end
$var wire 1 M m_axi_gmem_BREADY $end
$var wire 2 N m_axi_gmem_BRESP [1:0] $end
$var wire 1 O m_axi_gmem_BID [0:0] $end
$var wire 1 P m_axi_gmem_BUSER [0:0] $end
$var wire 32 Q in_stream_TDATA [31:0] $end
$var wire 1 R in_stream_TVALID $end
$var wire 1 S in_stream_TREADY $end
$var wire 4 T in_stream_TKEEP [3:0] $end
$var wire 4 U in_stream_TSTRB [3:0] $end
$var wire 1 V in_stream_TLAST [0:0] $end
$var wire 32 W out_stream_TDATA [31:0] $end
$var wire 1 X out_stream_TVALID $end
$var wire 1 Y out_stream_TREADY $end
$var wire 4 Z out_stream_TKEEP [3:0] $end
$var wire 4 [ out_stream_TSTRB [3:0] $end
$var wire 1 \ out_stream_TLAST [0:0] $end
$var wire 32 ] debug_stream_TDATA [31:0] $end
$var wire 1 ^ debug_stream_TVALID $end
$var wire 1 _ debug_stream_TREADY $end
$var wire 4 ` debug_stream_TKEEP [3:0] $end
$var wire 4 a debug_stream_TSTRB [3:0] $end
$var wire 1 b debug_stream_TLAST [0:0] $end
$var wire 1 c s_axi_control_AWVALID $end
$var wire 1 d s_axi_control_AWREADY $end
$var wire 5 e s_axi_control_AWADDR [4:0] $end
$var wire 1 f s_axi_control_WVALID $end
$var wire 1 g s_axi_control_WREADY $end
$var wire 32 h s_axi_control_WDATA [31:0] $end
$var wire 4 i s_axi_control_WSTRB [3:0] $end
$var wire 1 j s_axi_control_ARVALID $end
$var wire 1 k s_axi_control_ARREADY $end
$var wire 5 l s_axi_control_ARADDR [4:0] $end
$var wire 1 m s_axi_control_RVALID $end
$var wire 1 n s_axi_control_RREADY $end
$var wire 32 o s_axi_control_RDATA [31:0] $end
$var wire 2 p s_axi_control_RRESP [1:0] $end
$var wire 1 q s_axi_control_BVALID $end
$var wire 1 r s_axi_control_BREADY $end
$var wire 2 s s_axi_control_BRESP [1:0] $end
$var reg 1 t ap_done $end
$var reg 1 u ap_idle $end
$var reg 1 v ap_ready $end
$var reg 32 w row_ind [31:0] $end
$upscope $end
$upscope $end
$enddefinitions $end

#0
$dumpvars
0!
0"
0#
x$
0%
bx &
0'
bx (
b10 )
b1 *
b0 +
b11 ,
b0 -
b0 .
b0 /
00
x1
02
bx 3
bx 4
x5
06
07
x8
09
bx :
0;
bx <
b10 =
b1 >
b0 ?
b11 @
b0 A
b0 B
b0 C
0D
0E
xF
bx G
xH
xI
xJ
bx K
0L
xM
bx N
xO
xP
b0 Q
0R
0S
b0 T
b0 U
0V
b0 W
0X
0Y
b0 Z
b0 [
0\
b0 ]
0^
0_
b0 `
b0 a
0b
0c
0d
bx e
0f
0g
bx h
b0 i
0j
0k
bx l
0m
0n
bx o
b0 p
0q
0r
b0 s
0t
1u
0v
b0 w
$end

#5000
1!
0$
01
b0 3
b0 4
05
08
b0 :
b0 <
0F
0M

#10000
0!

#15000
1!

#20000
0!

#25000
1!

#30000
0!

#35000
1!

#40000
0!

#45000
1!

#50000
0!

#55000
1!

#60000
0!

#65000
1!

#70000
0!

#75000
1!

#80000
0!

#85000
1!

#90000
0!

#95000
1!

#100000
0!

#105000
1!

#110000
0!

#115000
1!

#120000
0!

#125000
1!

#125100
1"
b100000000000000010000 Q
1R
b1111 T
b1111 U
1Y
1_

#130000
0!

#135000
1!
1F
1M
1S
1c
1d
b10000 e
1k

#140000
0!

#145000
1!
b11 Q
1R
0c
0d
1f
1g
b0 h
b1111 i

#150000
0!

#155000
1!
b0 Q
1R
0S
0f
0g
1q
1r

#160000
0!

#165000
1!
1c
1d
b10100 e
0q
0r

#170000
0!

#175000
1!
0c
0d
1f
1g

#180000
0!

#185000
1!
0f
0g
1q
1r

#190000
0!

#195000
1!
1d
0q
0r

#200000
0!

#205000
1!

#210000
0!

#215000
1!

#220000
0!

#225000
1!

#230000
0!

#235000
1!
1#
0u

#240000
0!

#245000
1!

#250000
0!

#255000
1!

#260000
0!

#265000
1!
1S
1^
b1111 `
b1111 a
1b

#270000
0!

#275000
1!
1R
0^
1_

#280000
0!

#285000
1!
b100001100 Q
1R

#290000
0!

#295000
1!
b0 Q
1R

#300000
0!

#305000
1!
b100000000 Q
1R

#310000
0!

#315000
1!
b0 Q
1R
1V

#320000
0!

#325000
1!
0R

#330000
0!

#335000
1!

#340000
0!

#345000
1!

#350000
0!

#355000
1!
b100000000000000000 ]
1^

#360000
0!

#365000
1!
0^
1_

#370000
0!

#375000
1!

#380000
0!

#385000
1!

#390000
0!

#395000
1!

#400000
0!

#405000
1!

#410000
0!

#415000
1!

#420000
0!

#425000
1!

#430000
0!

#435000
1!
18
19
b100000000 :
b10 <

#440000
0!

#445000
1!
08
09
1E
b10000011011011100111111000111100 G
0H
0I
b0 K

#450000
0!

#455000
1!
1E
b10110001110001001001100000011011 G

#460000
0!

#465000
1!
1E
b10011 G
1H

#470000
0!

#475000
1!
0E
bx G
0H

#480000
0!

#485000
1!

#490000
0!

#495000
1!

#500000
0!

#505000
1!

#510000
0!

#515000
1!

#520000
0!

#525000
1!
b110000000000000000 ]
1^

#530000
0!

#535000
1!
0^
1_

