examples/histogram/vcd/dump.vcd
$date
   Mon Apr 13 17:05:30 2026
$end

$version
  2025.1.0
$end

$timescale
  1ps
$end

$scope module apatb_hist_top $end
$scope module AESL_inst_hist $end
$var wire 1 ! ap_clk $end
$var wire 1 " ap_rst_n $end
$var wire 1 # ap_start $end
$var wire 1 $ m_axi_gmem_AWVALID $end
$var wire 1 % m_axi_gmem_AWREADY $end
$var wire 64 & m_axi_gmem_AWADDR [63:0] $end
$var wire 1 ' m_axi_gmem_AWID [0:0] $end
$var wire 8 ( m_axi_gmem_AWLEN [7:0] $end
$var wire 3 ) m_axi_gmem_AWSIZE [2:0] $end
$var wire 2 * m_axi_gmem_AWBURST [1:0] $end
$var wire 2 + m_axi_gmem_AWLOCK [1:0] $end
$var wire 4 , m_axi_gmem_AWCACHE [3:0] $end
$var wire 3 - m_axi_gmem_AWPROT [2:0] $end
$var wire 4 . m_axi_gmem_AWQOS [3:0] $end
$var wire 4 / m_axi_gmem_AWREGION [3:0] $end
$var wire 1 0 m_axi_gmem_AWUSER [0:0] $end
$var wire 1 1 m_axi_gmem_WVALID $end
$var wire 1 2 m_axi_gmem_WREADY $end
$var wire 32 3 m_axi_gmem_WDATA [31:0] $end
$var wire 4 4 m_axi_gmem_WSTRB [3:0] $end
$var wire 1 5 m_axi_gmem_WLAST $end
$var wire 1 6 m_axi_gmem_WID [0:0] $end
$var wire 1 7 m_axi_gmem_WUSER [0:0] $end
$var wire 1 8 m_axi_gmem_ARVALID $end
$var wire 1 9 m_axi_gmem_ARREADY $end
$var wire 64 : m_axi_gmem_ARADDR [63:0] $end
$var wire 1 ; m_axi_gmem_ARID [0:0] $end
$var wire 8 < m_axi_gmem_ARLEN [7:0] $end
$var wire 3 = m_axi_gmem_ARSIZE [2:0] $end
$var wire 2 > m_axi_gmem_ARBURST [1:0] $end
$var wire 2 ? m_axi_gmem_ARLOCK [1:0] $end
$var wire 4 @ m_axi_gmem_ARCACHE [3:0] $end
$var wire 3 A m_axi_gmem_ARPROT [2:0] $end
$var wire 4 B m_axi_gmem_ARQOS [3:0] $end
$var wire 4 C m_axi_gmem_ARREGION [3:0] $end
$var wire 1 D m_axi_gmem_ARUSER [0:0] $end
$var wire 1 E m_axi_gmem_RVALID $end
$var wire 1 F m_axi_gmem_RREADY $end
$var wire 32 G m_axi_gmem_RDATA [31:0] $end
$var wire 1 H m_axi_gmem_RLAST $end
$var wire 1 I m_axi_gmem_RID [0:0] $end
$var wire 1 J m_axi_gmem_RUSER [0:0] $end
$var wire 2 K m_axi_gmem_RRESP [1:0] $end
$var wire 1 L m_axi_gmem_BVALID $end
$var wire 1 M m_axi_gmem_BREADY $end
$var wire 2 N m_axi_gmem_BRESP [1:0] $end
$var wire 1 O m_axi_gmem_BID [0:0] $end
$var wire 1 P m_axi_gmem_BUSER [0:0] $end
$var wire 32 Q in_stream_TDATA [31:0] $end
$var wire 1 R in_stream_TVALID $end
$var wire 1 S in_stream_TREADY $end
$var wire 4 T in_stream_TKEEP [3:0] $end
$var wire 4 U in_stream_TSTRB [3:0] $end
$var wire 1 V in_stream_TLAST [0:0] $end
$var wire 32 W out_stream_TDATA [31:0] $end
$var wire 1 X out_stream_TVALID $end
$var wire 1 Y out_stream_TREADY $end
$var wire 4 Z out_stream_TKEEP [3:0] $end
$var wire 4 [ out_stream_TSTRB [3:0] $end
$var wire 1 \ out_stream_TLAST [0:0] $end
$var wire 1 ] s_axi_control_AWVALID $end
$var wire 1 ^ s_axi_control_AWREADY $end
$var wire 5 _ s_axi_control_AWADDR [4:0] $end
$var wire 1 ` s_axi_control_WVALID $end
$var wire 1 a s_axi_control_WREADY $end
$var wire 32 b s_axi_control_WDATA [31:0] $end
$var wire 4 c s_axi_control_WSTRB [3:0] $end
$var wire 1 d s_axi_control_ARVALID $end
$var wire 1 e s_axi_control_ARREADY $end
$var wire 5 f s_axi_control_ARADDR [4:0] $end
$var wire 1 g s_axi_control_RVALID $end
$var wire 1 h s_axi_control_RREADY $end
$var wire 32 i s_axi_control_RDATA [31:0] $end
$var wire 2 j s_axi_control_RRESP [1:0] $end
$var wire 1 k s_axi_control_BVALID $end
$var wire 1 l s_axi_control_BREADY $end
$var wire 2 m s_axi_control_BRESP [1:0] $end
$var reg 1 n ap_done $end
$var reg 1 o ap_idle $end
$var reg 1 p ap_ready $end
$upscope $end
$upscope $end
$enddefinitions $end

#0
$dumpvars
0!
0"
0#
x$
0%
bx &
0'
bx (
b10 )
b1 *
b0 +
b11 ,
b0 -
b0 .
b0 /
00
x1
02
bx 3
bx 4
x5
06
07
x8
09
bx :
0;
bx <
b10 =
b1 >
b0 ?
b11 @
b0 A
b0 B
b0 C
0D
0E
xF
bx G
xH
xI
xJ
bx K
0L
xM
bx N
xO
xP
b0 Q
0R
0S
b0 T
b0 U
0V
b0 W
0X
0Y
b0 Z
b0 [
0\
0]
0^
bx _
0`
0a
bx b
b0 c
0d
0e
bx f
0g
0h
bx i
b0 j
0k
0l
b0 m
0n
1o
0p
$end

#5000
1!
0$
01
b0 3
b0 4
05
08
b0 :
b0 <
0F
0M

#10000
0!

#15000
1!

#20000
0!

#25000
1!

#30000
0!

#35000
1!

#40000
0!

#45000
1!

#50000
0!

#55000
1!

#60000
0!

#65000
1!

#70000
0!

#75000
1!

#80000
0!

#85000
1!

#90000
0!

#95000
1!

#100000
0!

#105000
1!

#110000
0!

#115000
1!

#120000
0!

#125000
1!

#125100
1"
b111 Q
1R
b1111 T
b1111 U
1Y

#130000
0!

#135000
1!
1F
1M
1S
1]
1^
b10000 _
1e

#140000
0!

#145000
1!
b0 Q
1R
0]
0^
1`
1a
b0 b
b1111 c

#150000
0!

#155000
1!
1R
0S
0`
0a
1k
1l

#160000
0!

#165000
1!
1]
1^
b10100 _
0k
0l

#170000
0!

#175000
1!
0]
0^
1`
1a

#180000
0!

#185000
1!
0`
0a
1k
1l

#190000
0!

#195000
1!
1^
0k
0l

#200000
0!

#205000
1!

#210000
0!

#215000
1!

#220000
0!

#225000
1!

#230000
0!

#235000
1!
1#
0o

#240000
0!

#245000
1!

#250000
0!

#255000
1!

#260000
0!

#265000
1!
1S

#270000
0!

#275000
1!
b10010100 Q
1R

#280000
0!

#285000
1!
b0 Q
1R

#290000
0!

#295000
1!
b100101 Q
1R

#300000
0!

#305000
1!
b110 Q
1R

#310000
0!

#315000
1!
b10101000 Q
1R

#320000
0!

#325000
1!
b0 Q
1R
1V

#330000
0!

#335000
1!
0R

#340000
0!

#345000
1!

#350000
0!

#355000
1!

#360000
0!

#365000
1!

#370000
0!

#375000
1!

#380000
0!

#385000
1!

#390000
0!

#395000
1!

#400000
0!

#405000
1!

#410000
0!

#415000
1!
18
19
b1111 <

#420000
0!

#425000
1!
19
b1000000 :
1E
b111010110010011000110001011111 G
0H
0I
b0 K

#430000
0!

#435000
1!
19
b10000000 :
b100 <
1E
b111110101111110011001001111000 G

#440000
0!

#445000
1!
08
09
1E
b10111110101011110111001010111111 G

#450000
0!

#455000
1!
1E
b10111111100011100111111010100100 G

#460000
0!

#465000
1!
1E
b10111111000100010111111010100001 G

#470000
0!

#475000
1!
1E
b10111111100111101010100111011000 G

#480000
0!

#485000
1!
1E
b111101100110011111011110110110 G

#490000
0!

#495000
1!
1E
b111111110101100110111100110111 G

#500000
0!

#505000
1!
1E
b10111111000111011000000110001111 G

#510000
0!

#515000
1!
1E
b10111111010001101000110101001110 G

#520000
0!

#525000
1!
1E
b111111000111001011111111011100 G

#530000
0!

#535000
1!
1E
b111110111001000110100001011110 G

#540000
0!

#545000
1!
1E
b111110000001101110111000100100 G

#550000
0!

#555000
1!
1E
b10111111100101001101111111111001 G

#560000
0!

#565000
1!
1E
b10111101000101011100010011110011 G

#570000
0!

#575000
1!
1E
b111111010111100111111100111101 G
1H

#580000
0!

#585000
1!
1E
b10111111110101110001001100000111 G
0H

#590000
0!

#595000
1!
1E
b10111111000100100110111111100010 G

#600000
0!

#605000
1!
1E
b11000000000110000001100100001011 G

#610000
0!

#615000
1!
1E
b10111111110011100101001101110111 G

#620000
0!

#625000
1!
1E
b11000000000100110101011010111100 G

#630000
0!

#635000
1!
1E
b10111110100101100111010101010101 G

#640000
0!

#645000
1!
1E
b10111111110010101100101010011100 G

#650000
0!

#655000
1!
1E
b111110101011011001101111110100 G

#660000
0!

#665000
1!
1E
b111110010010001010010000110010 G

#670000
0!

#675000
1!
1E
b10111110011011110100010110001000 G

#680000
0!

#685000
1!
1E
b11000000010010010101011100111101 G

#690000
0!

#695000
1!
1E
b10111111001011000110000110111001 G

#700000
0!

#705000
1!
1E
b10111101011110000101001100101001 G

#710000
0!

#715000
1!
1E
b111110000100010000100100010111 G

#720000
0!

#725000
1!
1E
b10111111111101001101001001011100 G

#730000
0!

#735000
1!
1E
b10111111000110001110000110001100 G
1H

#740000
0!

#745000
1!
1E
b10111111100111001001000000100100 G
0H

#750000
0!

#755000
1!
1E
b10111111100000010110100111111001 G

#760000
0!

#765000
1!
1E
b111111101010011011111001101000 G

#770000
0!

#775000
1!
1E
b10111111100000010011010010011111 G

#780000
0!

#785000
1!
1E
b10111101001001101000001011011001 G
1H

#790000
0!

#795000
1!
0E
bx G
0H

#800000
0!

#805000
1!

#810000
0!

#815000
1!

#820000
0!

#825000
1!

#830000
0!

#835000
1!

#840000
0!

#845000
1!

#850000
0!

#855000
1!

#860000
0!

#865000
1!

#870000
0!

#875000
1!

#880000
0!

#885000
1!

#890000
0!

#895000
1!

#900000
0!

#905000
1!
18
19
b10010100 :

#910000
0!

#915000
1!
08
09
1E
b10111111110111010010010100011001 G

#920000
0!

#925000
1!
1E
b10111111100101001011110010001000 G

#930000
0!

#935000
1!
1E
b111101010010001000010000001011 G

#940000
0!

#945000
1!
1E
b111111110100110011101100000101 G

#950000
0!

#955000
1!
1E
b111111111100110110100110011111 G
1H

#960000
0!

#965000
1!
0E
bx G
0H

